%YAML 1.1
%TAG !u! tag:unity3d.com,2011:
--- !u!1045 &1
EditorBuildSettings:
  m_ObjectHideFlags: 0
  serializedVersion: 2
  m_Scenes:
  - enabled: 1
    path: Assets/Scenes/LoginMenu.unity
    guid: e899808d2bb6ec748ad34426d01fe921
  - enabled: 1
    path: Assets/Scenes/LevelSelect.unity
    guid: 2bf97fb5291880344be111c27645fec9
  - enabled: 1
    path: Assets/Scenes/TestCourse/DefaultJumps.unity
    guid: 2d6d4514d4969ae42a736bd28906031e
  - enabled: 1
    path: Assets/Scenes/TestCourse/WallJumps.unity
    guid: 42c4fdcc4c60b3b4984fd03a3481c333
  - enabled: 1
    path: Assets/Scenes/TestCourse/PogoJumps.unity
    guid: 31241982fb7bdbc4db22ec0fa09a49c4
  - enabled: 1
    path: Assets/Scenes/TestCourse/SyncJumps.unity
    guid: 4178998950466b841a899ae193244d6a
  - enabled: 1
    path: Assets/Scenes/Level/Level01.unity
    guid: 131100c0c6f2f8a46a4f2ac542c5e2d7
  - enabled: 1
    path: Assets/Scenes/Level/Level02.unity
    guid: f47c94ae8eaa4274d9aa5375ded9d16d
  - enabled: 1
    path: Assets/Scenes/Level/Level03.unity
    guid: d3978cdd8cbbe7044a8069961f48bf4a
  - enabled: 1
    path: Assets/Scenes/Tutorial.unity
    guid: 16c79ce7b347c844eaf297674a7357a7
  - enabled: 1
    path: Assets/Scenes/LeaderBoard.unity
    guid: 9c7794719b1a2774c9ab87fe6cc4920c
  - enabled: 1
    path: Assets/Scenes/TrainingCourses/Training01.unity
    guid: 531cf431cb01f2c48a13acff51a6613c
  - enabled: 1
    path: Assets/Scenes/TrainingCourses/Training02.unity
    guid: 90d1733ef2534984a901553bdc7e41d7
  m_configObjects: {}
