%YAML 1.1
%TAG !u! tag:unity3d.com,2011:
--- !u!1001 &6361027975079473881
PrefabInstance:
  m_ObjectHideFlags: 0
  serializedVersion: 2
  m_Modification:
    m_TransformParent: {fileID: 0}
    m_Modifications:
    - target: {fileID: 3475271298297776919, guid: 4daf1fed4909d22439e0d31eac7f50ce,
        type: 3}
      propertyPath: m_AnchoredPosition.y
      value: -0.037
      objectReference: {fileID: 0}
    - target: {fileID: 8971934396176728302, guid: 4daf1fed4909d22439e0d31eac7f50ce,
        type: 3}
      propertyPath: OutputAudioMixerGroup
      value: 
      objectReference: {fileID: 6276010249005078526, guid: bede1eda32734a04bbeea3e23e590576,
        type: 2}
    - target: {fileID: 9126304199941465953, guid: 4daf1fed4909d22439e0d31eac7f50ce,
        type: 3}
      propertyPath: m_text
      value: Level 02
      objectReference: {fileID: 0}
    - target: {fileID: 9157211139003670619, guid: 4daf1fed4909d22439e0d31eac7f50ce,
        type: 3}
      propertyPath: m_Name
      value: LevelSelectWithText
      objectReference: {fileID: 0}
    - target: {fileID: 9157211139003670623, guid: 4daf1fed4909d22439e0d31eac7f50ce,
        type: 3}
      propertyPath: m_RootOrder
      value: 0
      objectReference: {fileID: 0}
    - target: {fileID: 9157211139003670623, guid: 4daf1fed4909d22439e0d31eac7f50ce,
        type: 3}
      propertyPath: m_LocalPosition.x
      value: 25
      objectReference: {fileID: 0}
    - target: {fileID: 9157211139003670623, guid: 4daf1fed4909d22439e0d31eac7f50ce,
        type: 3}
      propertyPath: m_LocalPosition.y
      value: 2
      objectReference: {fileID: 0}
    - target: {fileID: 9157211139003670623, guid: 4daf1fed4909d22439e0d31eac7f50ce,
        type: 3}
      propertyPath: m_LocalPosition.z
      value: 0
      objectReference: {fileID: 0}
    - target: {fileID: 9157211139003670623, guid: 4daf1fed4909d22439e0d31eac7f50ce,
        type: 3}
      propertyPath: m_LocalRotation.w
      value: 1
      objectReference: {fileID: 0}
    - target: {fileID: 9157211139003670623, guid: 4daf1fed4909d22439e0d31eac7f50ce,
        type: 3}
      propertyPath: m_LocalRotation.x
      value: 0
      objectReference: {fileID: 0}
    - target: {fileID: 9157211139003670623, guid: 4daf1fed4909d22439e0d31eac7f50ce,
        type: 3}
      propertyPath: m_LocalRotation.y
      value: 0
      objectReference: {fileID: 0}
    - target: {fileID: 9157211139003670623, guid: 4daf1fed4909d22439e0d31eac7f50ce,
        type: 3}
      propertyPath: m_LocalRotation.z
      value: 0
      objectReference: {fileID: 0}
    - target: {fileID: 9157211139003670623, guid: 4daf1fed4909d22439e0d31eac7f50ce,
        type: 3}
      propertyPath: m_LocalEulerAnglesHint.x
      value: 0
      objectReference: {fileID: 0}
    - target: {fileID: 9157211139003670623, guid: 4daf1fed4909d22439e0d31eac7f50ce,
        type: 3}
      propertyPath: m_LocalEulerAnglesHint.y
      value: 0
      objectReference: {fileID: 0}
    - target: {fileID: 9157211139003670623, guid: 4daf1fed4909d22439e0d31eac7f50ce,
        type: 3}
      propertyPath: m_LocalEulerAnglesHint.z
      value: 0
      objectReference: {fileID: 0}
    m_RemovedComponents: []
  m_SourcePrefab: {fileID: 100100000, guid: 4daf1fed4909d22439e0d31eac7f50ce, type: 3}
